Avanced Tidyverse: advanced {dplyr}
…
<!-- xaringan::inf_mr() -->

# {dplyr} refresher

```r
library(dplyr, warn.conflicts = FALSE)
starwars
```

```
## # A tibble: 87 × 14
##    name   height  mass hair_color skin_color eye_color birth_year sex   gender homeworld
##    <chr>   <int> <dbl> <chr>      <chr>      <chr>          <dbl> <chr> <chr>  <chr>    
##  1 Luke …    172    77 blond      fair       blue            19   male  mascu… Tatooine 
##  2 C-3PO     167    75 <NA>       gold       yellow         112   none  mascu… Tatooine 
##  3 R2-D2      96    32 <NA>       white, bl… red             33   none  mascu… Naboo    
##  4 Darth…    202   136 none       white      yellow          41.9 male  mascu… Tatooine 
##  5 Leia …    150    49 brown      light      brown           19   fema… femin… Alderaan 
##  6 Owen …    178   120 brown, gr… light      blue            52   male  mascu… Tatooine 
##  7 Beru …    165    75 brown      light      blue            47   fema… femin… Tatooine 
##  8 R5-D4      97    32 <NA>       white, red red             NA   none  mascu… Tatooine 
##  9 Biggs…    183    84 black      light      brown           24   male  mascu… Tatooine 
## 10 Obi-W…    182    77 auburn, w… fair       blue-gray       57   male  mascu… Stewjon  
## # … with 77 more rows, and 4 more variables: species <chr>, films <list>,
## #   vehicles <list>, starships <list>
```
…
---

# {dplyr} refresher

`select()`

```r
sw_selected <- select(starwars, name, height, homeworld, species)
sw_selected
```

```
## # A tibble: 87 × 4
##    name               height homeworld species
##    <chr>               <int> <chr>     <chr>  
##  1 Luke Skywalker        172 Tatooine  Human  
##  2 C-3PO                 167 Tatooine  Droid  
##  3 R2-D2                  96 Naboo     Droid  
##  4 Darth Vader           202 Tatooine  Human  
##  5 Leia Organa           150 Alderaan  Human  
##  6 Owen Lars             178 Tatooine  Human  
##  7 Beru Whitesun lars    165 Tatooine  Human  
##  8 R5-D4                  97 Tatooine  Droid  
##  9 Biggs Darklighter     183 Tatooine  Human  
## 10 Obi-Wan Kenobi        182 Stewjon   Human  
## # … with 77 more rows
```
…
```
## # A tibble: 2 × 3
##   height  mass birth_year
##    <int> <dbl>      <dbl>
## 1    172    77         19
## 2    167    75        112
```

```r
select(starwars, where(~n_distinct(.x) < 10))
```

```
## # A tibble: 87 × 2
##    sex    gender   
##    <chr>  <chr>    
##  1 male   masculine
##  2 none   masculine
##  3 none   masculine
##  4 male   masculine
##  5 female feminine 
##  6 male   masculine
##  7 female feminine 
##  8 none   masculine
##  9 male   masculine
## 10 male   masculine
## # … with 77 more rows
```
…
---

# Advanced grouping and summarizing

`count()` is another mutating verb that looks like a selecting verb.

Recognize the error to know when to use `across()`

```r
count(starwars, across(ends_with("color")))
```

```
## # A tibble: 67 × 4
##    hair_color    skin_color eye_color     n
##    <chr>         <chr>      <chr>     <int>
##  1 auburn        fair       blue          1
##  2 auburn, grey  fair       blue          1
##  3 auburn, white fair       blue-gray     1
##  4 black         blue, grey yellow        1
##  5 black         brown      brown         1
##  6 black         dark       brown         3
##  7 black         dark       dark          1
##  8 black         fair       brown         2
##  9 black         light      brown         1
## 10 black         tan        brown         2
## # … with 57 more rows
```
…
